STA 199 - Data Viz + Data Manipulation
…
count(): count unique values of one or more variables.

group_by(): perform calculations separately for each value of a variable

Activities

select()

Demo: Make a data frame that only contains the variables dep_delay and arr_delay.

flights |>
  select(dep_delay, arr_delay)

# A tibble: 336,776 × 2
   dep_delay arr_delay
       <dbl>     <dbl>
 1         2        11
 2         4        20
 3         2        33
 4        -1       -18
 5        -6       -25
 6        -4        12
 7        -5        19
 8        -3       -14
 9        -3        -8
10        -2         8
# … with 336,766 more rows

Demo: Make a data frame that keeps every variable except dep_delay. Call the new data frame new.data

new.data <- flights |> 
  select(-dep_delay)

In the console, type 1:10 and hit enter. What happened?

Demo: Make a data frame that includes all variables between year through dep_delay (inclusive). These are all variables that provide information about the departure of each flight.

flights |> 
  select(year:dep_delay)

# A tibble: 336,776 × 6
    year month   day dep_time sched_dep_time dep_delay
   <int> <int> <int>    <int>          <int>     <dbl>
 1  2013     1     1      517            515         2
 2  2013     1     1      533            529         4
 3  2013     1     1      542            540         2
 4  2013     1     1      544            545        -1
 5  2013     1     1      554            600        -6
 6  2013     1     1      554            558        -4
 7  2013     1     1      555            600        -5
 8  2013     1     1      557            600        -3
 9  2013     1     1      557            600        -3
10  2013     1     1      558            600        -2
# … with 336,766 more rows

Demo: Use the select helper contains() to make a data frame that includes the variables associated with the arrival, i.e., contains the string "arr_" in the name. Reminder: Thinking about code as sentences can help make nesting functions more intuitive.

Hint: Run ?contains and click Select variables that match a pattern. Scroll down to the examples. Next answer the question below.

flights |>
  select(contains("arr_"))

# A tibble: 336,776 × 3
   arr_time sched_arr_time arr_delay
      <int>          <int>     <dbl>
 1      830            819        11
 2      850            830        20
 3      923            850        33
 4     1004           1022       -18
 5      812            837       -25
 6      740            728        12
 7      913            854        19
 8      709            723       -14
 9      838            846        -8
10      753            745         8
# … with 336,766 more rows
…
arrange()

Demo: Let’s arrange the data by departure delay, so the flights with the shortest departure delays will be at the top of the data frame.

flights |>
  arrange(dep_delay)

# A tibble: 336,776 × 19
    year month   day dep_time sched_de…¹ dep_d…² arr_t…³ sched…⁴ arr_d…⁵ carrier
   <int> <int> <int>    <int>      <int>   <dbl>   <int>   <int>   <dbl> <chr>  
 1  2013    12     7     2040       2123     -43      40    2352      48 B6     
 2  2013     2     3     2022       2055     -33    2240    2338     -58 DL     
 3  2013    11    10     1408       1440     -32    1549    1559     -10 EV     
 4  2013     1    11     1900       1930     -30    2233    2243     -10 DL     
 5  2013     1    29     1703       1730     -27    1947    1957     -10 F9     
 6  2013     8     9      729        755     -26    1002     955       7 MQ     
 7  2013    10    23     1907       1932     -25    2143    2143       0 EV     
 8  2013     3    30     2030       2055     -25    2213    2250     -37 MQ     
 9  2013     3     2     1431       1455     -24    1601    1631     -30 9E     
10  2013     5     5      934        958     -24    1225    1309     -44 B6     
# … with 336,766 more rows, 9 more variables: flight <int>, tailnum <chr>,
#   origin <chr>, dest <chr>, air_time <dbl>, distance <dbl>, hour <dbl>,
#   minute <dbl>, time_hour <dttm>, and abbreviated variable names
#   ¹​sched_dep_time, ²​dep_delay, ³​arr_time, ⁴​sched_arr_time, ⁵​arr_delay

Demo: Now let’s arrange the data by descending departure delay, so the flights with the longest departure delays will be at the top. Hint, run ?desc in the console.

flights |>
  arrange(desc(dep_delay))

# A tibble: 336,776 × 19
    year month   day dep_time sched_de…¹ dep_d…² arr_t…³ sched…⁴ arr_d…⁵ carrier
   <int> <int> <int>    <int>      <int>   <dbl>   <int>   <int>   <dbl> <chr>  
 1  2013     1     9      641        900    1301    1242    1530    1272 HA     
 2  2013     6    15     1432       1935    1137    1607    2120    1127 MQ     
 3  2013     1    10     1121       1635    1126    1239    1810    1109 MQ     
 4  2013     9    20     1139       1845    1014    1457    2210    1007 AA     
 5  2013     7    22      845       1600    1005    1044    1815     989 MQ     
 6  2013     4    10     1100       1900     960    1342    2211     931 DL     
 7  2013     3    17     2321        810     911     135    1020     915 DL     
 8  2013     6    27      959       1900     899    1236    2226     850 DL     
 9  2013     7    22     2257        759     898     121    1026     895 DL     
10  2013    12     5      756       1700     896    1058    2020     878 AA     
# … with 336,766 more rows, 9 more variables: flight <int>, tailnum <chr>,
#   origin <chr>, dest <chr>, air_time <dbl>, distance <dbl>, hour <dbl>,
#   minute <dbl>, time_hour <dttm>, and abbreviated variable names
#   ¹​sched_dep_time, ²​dep_delay, ³​arr_time, ⁴​sched_arr_time, ⁵​arr_delay
…
