STA 199 - Dplyr + Joins
…
Data

These data were collected from 2007 - 2009 by Dr. Kristen Gorman with the Palmer Station Long Term Ecological Research Program, part of the US Long Term Ecological Research Network. The data were imported directly from the Environmental Data Initiative (EDI) Data Portal, and are available for use by CC0 license (“No Rights Reserved”) in accordance with the Palmer Station Data Policy.

filter()

Demo: Filter the data frame by selecting the rows where the destination airport is RDU. Comment the code below.

flights |>
  filter(dest == "RDU")

# A tibble: 8,163 × 19
    year month   day dep_time sched_de…¹ dep_d…² arr_t…³ sched…⁴ arr_d…⁵ carrier
   <int> <int> <int>    <int>      <int>   <dbl>   <int>   <int>   <dbl> <chr>  
 1  2013     1     1      800        810     -10     949     955      -6 MQ     
 2  2013     1     1      832        840      -8    1006    1030     -24 MQ     
 3  2013     1     1      851        851       0    1032    1036      -4 EV     
 4  2013     1     1      917        920      -3    1052    1108     -16 B6     
 5  2013     1     1     1024       1030      -6    1204    1215     -11 MQ     
 6  2013     1     1     1127       1129      -2    1303    1309      -6 EV     
 7  2013     1     1     1157       1205      -8    1342    1345      -3 MQ     
 8  2013     1     1     1240       1235       5    1415    1415       0 MQ     
 9  2013     1     1     1317       1325      -8    1454    1505     -11 MQ     
10  2013     1     1     1449       1450      -1    1651    1640      11 MQ     
# … with 8,153 more rows, 9 more variables: flight <int>, tailnum <chr>,
#   origin <chr>, dest <chr>, air_time <dbl>, distance <dbl>, hour <dbl>,
#   minute <dbl>, time_hour <dttm>, and abbreviated variable names
#   ¹​sched_dep_time, ²​dep_delay, ³​arr_time, ⁴​sched_arr_time, ⁵​arr_delay

# = is the same as <-

Now, run the following code with one equals sign instead of two. Does it still work?

(=) is a Assignment operator while (==) is a Equal to operator. (=) is used for assigning the values from right to left while (==) is used for showing equality between values.

Demo: We can also filter using more than one condition. Here we select all rows where the destination airport is RDU and the arrival delay is less than 0. As we’ve learned, conditions within functions are separated by a ,.

flights |>
  filter(dest == "RDU" , arr_delay < 0 )

# A tibble: 4,232 × 19
    year month   day dep_time sched_de…¹ dep_d…² arr_t…³ sched…⁴ arr_d…⁵ carrier
   <int> <int> <int>    <int>      <int>   <dbl>   <int>   <int>   <dbl> <chr>  
 1  2013     1     1      800        810     -10     949     955      -6 MQ     
 2  2013     1     1      832        840      -8    1006    1030     -24 MQ     
 3  2013     1     1      851        851       0    1032    1036      -4 EV     
 4  2013     1     1      917        920      -3    1052    1108     -16 B6     
 5  2013     1     1     1024       1030      -6    1204    1215     -11 MQ     
 6  2013     1     1     1127       1129      -2    1303    1309      -6 EV     
 7  2013     1     1     1157       1205      -8    1342    1345      -3 MQ     
 8  2013     1     1     1317       1325      -8    1454    1505     -11 MQ     
 9  2013     1     1     1505       1510      -5    1654    1655      -1 MQ     
10  2013     1     1     1800       1800       0    1945    1951      -6 B6     
# … with 4,222 more rows, 9 more variables: flight <int>, tailnum <chr>,
#   origin <chr>, dest <chr>, air_time <dbl>, distance <dbl>, hour <dbl>,
#   minute <dbl>, time_hour <dttm>, and abbreviated variable names
#   ¹​sched_dep_time, ²​dep_delay, ³​arr_time, ⁴​sched_arr_time, ⁵​arr_delay
…
!x
is not x?

The final operator only makes sense if x is logical (TRUE / FALSE).

Your turn (4 minutes): Describe what the code is doing in words.

flights |> # data set and 
  filter(dest %in% "RDU", 
         arr_delay < 0 | dep_delay < 0
         )

# A tibble: 5,308 × 19
    year month   day dep_time sched_de…¹ dep_d…² arr_t…³ sched…⁴ arr_d…⁵ carrier
   <int> <int> <int>    <int>      <int>   <dbl>   <int>   <int>   <dbl> <chr>  
 1  2013     1     1      800        810     -10     949     955      -6 MQ     
 2  2013     1     1      832        840      -8    1006    1030     -24 MQ     
 3  2013     1     1      851        851       0    1032    1036      -4 EV     
 4  2013     1     1      917        920      -3    1052    1108     -16 B6     
 5  2013     1     1     1024       1030      -6    1204    1215     -11 MQ     
 6  2013     1     1     1127       1129      -2    1303    1309      -6 EV     
 7  2013     1     1     1157       1205      -8    1342    1345      -3 MQ     
 8  2013     1     1     1317       1325      -8    1454    1505     -11 MQ     
 9  2013     1     1     1449       1450      -1    1651    1640      11 MQ     
10  2013     1     1     1505       1510      -5    1654    1655      -1 MQ     
# … with 5,298 more rows, 9 more variables: flight <int>, tailnum <chr>,
#   origin <chr>, dest <chr>, air_time <dbl>, distance <dbl>, hour <dbl>,
#   minute <dbl>, time_hour <dttm>, and abbreviated variable names
#   ¹​sched_dep_time, ²​dep_delay, ³​arr_time, ⁴​sched_arr_time, ⁵​arr_delay

What if we want to land at destinations of RDU and GSO? How does the below code change?

flights |>
  filter(dest %in% c("RDU", "GSO"),
         arr_delay < 0 | dep_delay < 0
         )

# A tibble: 6,203 × 19
    year month   day dep_time sched_de…¹ dep_d…² arr_t…³ sched…⁴ arr_d…⁵ carrier
   <int> <int> <int>    <int>      <int>   <dbl>   <int>   <int>   <dbl> <chr>  
 1  2013     1     1      800        810     -10     949     955      -6 MQ     
 2  2013     1     1      832        840      -8    1006    1030     -24 MQ     
 3  2013     1     1      851        851       0    1032    1036      -4 EV     
 4  2013     1     1      917        920      -3    1052    1108     -16 B6     
 5  2013     1     1     1024       1030      -6    1204    1215     -11 MQ     
 6  2013     1     1     1127       1129      -2    1303    1309      -6 EV     
 7  2013     1     1     1157       1205      -8    1342    1345      -3 MQ     
 8  2013     1     1     1317       1325      -8    1454    1505     -11 MQ     
 9  2013     1     1     1449       1450      -1    1651    1640      11 MQ     
10  2013     1     1     1505       1510      -5    1654    1655      -1 MQ     
# … with 6,193 more rows, 9 more variables: flight <int>, tailnum <chr>,
#   origin <chr>, dest <chr>, air_time <dbl>, distance <dbl>, hour <dbl>,
#   minute <dbl>, time_hour <dttm>, and abbreviated variable names
#   ¹​sched_dep_time, ²​dep_delay, ³​arr_time, ⁴​sched_arr_time, ⁵​arr_delay

Why c?

Combine. Use when we have a list larger than one.

count()

Demo: Create a frequency table of the destination locations for flights from New York.

flights |>
  count(dest)

# A tibble: 105 × 2
   dest      n
   <chr> <int>
 1 ABQ     254
 2 ACK     265
 3 ALB     439
 4 ANC       8
 5 ATL   17215
 6 AUS    2439
 7 AVL     275
 8 BDL     443
 9 BGR     375
10 BHM     297
# … with 95 more rows
…
mutate()

Use mutate() to create a new variable.

Demo: In the code chunk below, air_time (minutes in the air) is converted to hours, and then new variable mph is created, corresponding to the miles per hour of the flight. Comment each line of code below.

flights |> 
  mutate(hours = air_time / 60, 
         mph = distance / hours) |>
select(air_time, distance, hours, mph)

# A tibble: 336,776 × 4
   air_time distance hours   mph
      <dbl>    <dbl> <dbl> <dbl>
 1      227     1400 3.78   370.
 2      227     1416 3.78   374.
 3      160     1089 2.67   408.
 4      183     1576 3.05   517.
 5      116      762 1.93   394.
 6      150      719 2.5    288.
 7      158     1065 2.63   404.
 8       53      229 0.883  259.
 9      140      944 2.33   405.
10      138      733 2.3    319.
# … with 336,766 more rows
…
We can also use mutate to change the type of the same variable (think back to Monday slides)

First, show / justify why we can not currently make boxplots of dep_delay by month without altering these data. Next write the following code to create boxplots of dep_delay by month.

flights |> 
  mutate(month = as.factor(month)) 

# A tibble: 336,776 × 19
    year month   day dep_time sched_de…¹ dep_d…² arr_t…³ sched…⁴ arr_d…⁵ carrier
   <int> <fct> <int>    <int>      <int>   <dbl>   <int>   <int>   <dbl> <chr>  
 1  2013 1         1      517        515       2     830     819      11 UA     
 2  2013 1         1      533        529       4     850     830      20 UA     
 3  2013 1         1      542        540       2     923     850      33 AA     
 4  2013 1         1      544        545      -1    1004    1022     -18 B6     
 5  2013 1         1      554        600      -6     812     837     -25 DL     
 6  2013 1         1      554        558      -4     740     728      12 UA     
 7  2013 1         1      555        600      -5     913     854      19 B6     
 8  2013 1         1      557        600      -3     709     723     -14 EV     
 9  2013 1         1      557        600      -3     838     846      -8 B6     
10  2013 1         1      558        600      -2     753     745       8 AA     
# … with 336,766 more rows, 9 more variables: flight <int>, tailnum <chr>,
#   origin <chr>, dest <chr>, air_time <dbl>, distance <dbl>, hour <dbl>,
#   minute <dbl>, time_hour <dttm>, and abbreviated variable names
#   ¹​sched_dep_time, ²​dep_delay, ³​arr_time, ⁴​sched_arr_time, ⁵​arr_delay
…
Demo: Join the two data frames and name assign the joined data frame back to fisheries.

fisheries <- fisheries |>
  left_join(continents)

Joining, by = "country"

#same as the following

left_join(fisheries, continents)

Joining, by = c("country", "continent")

# A tibble: 82 × 5
   country    capture aquaculture   total continent
   <chr>        <dbl>       <dbl>   <dbl> <chr>    
 1 Angola      486490         655  487145 Africa   
 2 Argentina   755226        3673  758899 Americas 
 3 Australia   174629       96847  271476 Oceania  
 4 Bangladesh 1674770     2203554 3878324 Asia     
 5 Brazil      705000      581230 1286230 Americas 
 6 Cambodia    629950      172500  802450 Asia     
 7 Cameroon    233190        2315  235505 Africa   
 8 Canada      874727      200765 1075492 Americas 
 9 Chad        110000          94  110094 Africa   
10 Chile      1829238     1050117 2879355 Americas 
# … with 72 more rows
…
