STA 199 - Joining Fisheries + Tidy Data
…
ℹ Use `spec()` to retrieve the full column specification for this data.
ℹ Specify the column types or set `show_col_types = FALSE` to quiet this message.

fisheries <- fisheries |>
  left_join(continents)

Joining, by = "country"

#same as the following

left_join(fisheries, continents)

Joining, by = c("country", "continent")

# A tibble: 82 × 5
   country    capture aquaculture   total continent
   <chr>        <dbl>       <dbl>   <dbl> <chr>    
 1 Angola      486490         655  487145 Africa   
 2 Argentina   755226        3673  758899 Americas 
 3 Australia   174629       96847  271476 Oceania  
 4 Bangladesh 1674770     2203554 3878324 Asia     
 5 Brazil      705000      581230 1286230 Americas 
 6 Cambodia    629950      172500  802450 Asia     
 7 Cameroon    233190        2315  235505 Africa   
 8 Canada      874727      200765 1075492 Americas 
 9 Chad        110000          94  110094 Africa   
10 Chile      1829238     1050117 2879355 Americas 
# … with 72 more rows
…
– Suppose now that you are asked to have two separate columns within these data. One column to represent Game, and one to represent Location. Make this happen below. Save your new data set as new.blazer

Hint: Run ?separate in the Console.

trailblazer |> 
  pivot_longer(cols = !Player,
               names_to = "Game",
               values_to = "Points") |>
  separate(Game, sep = "_", into = c("Game" , "Location"))

# A tibble: 90 × 4
   Player         Game   Location Points
   <chr>          <chr>  <chr>     <dbl>
 1 Damian Lillard Game1  Home         20
 2 Damian Lillard Game2  Home         19
 3 Damian Lillard Game3  Away         12
 4 Damian Lillard Game4  Home         20
 5 Damian Lillard Game5  Home         25
 6 Damian Lillard Game6  Away         14
 7 Damian Lillard Game7  Away         20
 8 Damian Lillard Game8  Away         26
 9 Damian Lillard Game9  Home          4
10 Damian Lillard Game10 Home         25
# … with 80 more rows
…
