STA 199 - Prediction
…
What is this ROC curve telling us? How was the ROC curve created?

The relationship at different cutoffs between true positive and false positives

## all of the thresholds and predictions are in these data here

email_pred |>
  roc_curve(
    truth = spam, 
    .pred_1, 
    event_level = "second" #which level is a success?
  ) 

# A tibble: 47 × 3
      .threshold specificity sensitivity
           <dbl>       <dbl>       <dbl>
 1 -Inf              0             1    
 2    0.00000952     0             1    
 3    0.0000144      0.00280       1    
 4    0.0000217      0.00420       1    
 5    0.0000494      0.00420       0.984
 6    0.0000917      0.00560       0.984
 7    0.000138       0.00700       0.984
 8    0.000209       0.00840       0.984
 9    0.000257       0.0126        0.984
10    0.000315       0.0182        0.984
# … with 37 more rows

email_pred |>
  arrange(.pred_1)

# A tibble: 778 × 3
   .pred_0    .pred_1 spam 
     <dbl>      <dbl> <fct>
 1    1.00 0.00000952 0    
 2    1.00 0.00000952 0    
 3    1.00 0.0000144  0    
 4    1.00 0.0000217  1    
 5    1.00 0.0000494  0    
 6    1.00 0.0000917  0    
 7    1.00 0.000138   0    
 8    1.00 0.000209   0    
 9    1.00 0.000209   0    
10    1.00 0.000209   0    
# … with 768 more rows
…
