STA 199 - AE 06: Suggested Answers
…
Pivoting

Demo: Pivot the statsci data frame longer such that each row represents a degree type / year combination and year and number of graduates for that year are columns in the data frame.

Explain why the following code below accomplishes the question above.

statsci |>
  pivot_longer(
    cols = !c(degree,id),
    names_to = "year",
    values_to = "n"
  ) 

# A tibble: 44 × 4
      id degree                    year      n
   <dbl> <chr>                     <chr> <dbl>
 1     1 Statistical Science (AB2) 2011     NA
 2     1 Statistical Science (AB2) 2012      1
 3     1 Statistical Science (AB2) 2013     NA
 4     1 Statistical Science (AB2) 2014     NA
 5     1 Statistical Science (AB2) 2015      4
 6     1 Statistical Science (AB2) 2016      4
 7     1 Statistical Science (AB2) 2017      1
 8     1 Statistical Science (AB2) 2018     NA
 9     1 Statistical Science (AB2) 2019     NA
10     1 Statistical Science (AB2) 2020      1
# … with 34 more rows
…
It’s a (categorical/quantitative) variable since the information came from the columns of the original data frame and R cannot know that these character strings represent years. The variable type should be (categorical/quantitative).

Demo: Start over with pivoting, and this time also make sure year is a numerical variable in the resulting data frame. How do we typically change data types? We can also do it within pivot. How does this code differ from above?

Add response

statsci |>
  pivot_longer(
    cols = -c(degree,id),
    names_to = "year",
    names_transform = as.numeric,
    values_to = "n"
  )  

# A tibble: 44 × 4
      id degree                     year     n
   <dbl> <chr>                     <dbl> <dbl>
 1     1 Statistical Science (AB2)  2011    NA
 2     1 Statistical Science (AB2)  2012     1
 3     1 Statistical Science (AB2)  2013    NA
 4     1 Statistical Science (AB2)  2014    NA
 5     1 Statistical Science (AB2)  2015     4
 6     1 Statistical Science (AB2)  2016     4
 7     1 Statistical Science (AB2)  2017     1
 8     1 Statistical Science (AB2)  2018    NA
 9     1 Statistical Science (AB2)  2019    NA
10     1 Statistical Science (AB2)  2020     1
# … with 34 more rows

Demo: Add on to your pipeline that you started with pivoting and convert NAs in n to 0s.

statsci |>
  pivot_longer(
    cols = !c(id,degree),
    names_to = "year",
    names_transform = as.numeric,
    values_to = "n"
  ) |>
  mutate(n = if_else(is.na(n), 0, n))

# A tibble: 44 × 4
      id degree                     year     n
   <dbl> <chr>                     <dbl> <dbl>
 1     1 Statistical Science (AB2)  2011     0
 2     1 Statistical Science (AB2)  2012     1
 3     1 Statistical Science (AB2)  2013     0
 4     1 Statistical Science (AB2)  2014     0
 5     1 Statistical Science (AB2)  2015     4
 6     1 Statistical Science (AB2)  2016     4
 7     1 Statistical Science (AB2)  2017     1
 8     1 Statistical Science (AB2)  2018     0
 9     1 Statistical Science (AB2)  2019     0
10     1 Statistical Science (AB2)  2020     1
# … with 34 more rows
…
statsci |>
  pivot_longer(
    cols = !c(id,degree),
    names_to = "year",
    names_transform = as.numeric,
    values_to = "n"
  ) |>
  mutate(n = if_else(is.na(n), 0, n)) |>
  separate(degree, sep = "\\(" , into = c("major", "degree_type")) |>
  mutate(
    degree_type = str_remove(degree_type, "\\)"),
    degree_type = fct_relevel(degree_type, "BS", "BS2", "AB", "AB2")
    )

# A tibble: 44 × 5
      id major                  degree_type  year     n
   <dbl> <chr>                  <fct>       <dbl> <dbl>
 1     1 "Statistical Science " AB2          2011     0
 2     1 "Statistical Science " AB2          2012     1
 3     1 "Statistical Science " AB2          2013     0
 4     1 "Statistical Science " AB2          2014     0
 5     1 "Statistical Science " AB2          2015     4
 6     1 "Statistical Science " AB2          2016     4
 7     1 "Statistical Science " AB2          2017     1
 8     1 "Statistical Science " AB2          2018     0
 9     1 "Statistical Science " AB2          2019     0
10     1 "Statistical Science " AB2          2020     1
# … with 34 more rows
…
